┌─────────┬─────────────────────┬─────────────────────┬───┬──────────────┬──────────────┬──────────────┐
│  type   │   pickup_datetime   │  dropOff_datetime   │ … │ duration_sec │ PUlocationID │ DOlocationID │
│ varchar │      timestamp      │      timestamp      │   │    int64     │    double    │    double    │
├─────────┼─────────────────────┼─────────────────────┼───┼──────────────┼──────────────┼──────────────┤
│ fhv     │ 2020-03-27 09:56:15 │ 2020-03-27 10:11:14 │ … │          899 │              │         32.0 │
│ fhv     │ 2020-03-27 09:34:36 │ 2020-03-27 09:53:42 │ … │         1146 │              │        254.0 │
│ fhv     │ 2020-03-27 09:10:58 │ 2020-03-27 09:21:20 │ … │          622 │              │        247.0 │
│ fhv     │ 2020-03-27 09:34:58 │ 2020-03-27 09:39:09 │ … │          251 │              │         42.0 │
│ fhv     │ 2020-03-27 09:47:46 │ 2020-03-27 10:01:10 │ … │          804 │              │        247.0 │
│ fhv     │ 2020-03-27 09:30:39 │ 2020-03-27 09:40:08 │ … │          569 │              │        116.0 │
│ fhv     │ 2020-03-27 09:38:17 │ 2020-03-27 09:55:48 │ … │         1051 │              │        250.0 │
│ fhv     │ 2020-03-27 09:35:20 │ 2020-03-27 09:39:48 │ … │          268 │              │        244.0 │
│ fhv     │ 2020-03-27 09:06:10 │ 2020-03-27 09:07:25 │ … │           75 │              │        244.0 │
│ fhv     │ 2020-03-27 09:13:06 │ 2020-03-27 09:13:54 │ … │           48 │              │        242.0 │
│ fhv     │ 2020-03-27 09:52:59 │ 2020-03-27 09:53:14 │ … │           15 │              │        265.0 │
│ fhv     │ 2020-03-27 09:26:51 │ 2020-03-27 09:29:50 │ … │          179 │              │        242.0 │
│ fhv     │ 2020-03-27 09:41:20 │ 2020-03-27 09:43:40 │ … │          140 │              │         62.0 │
│ fhv     │ 2020-03-27 09:50:14 │ 2020-03-27 09:58:18 │ … │          484 │              │         97.0 │
│ fhv     │ 2020-03-27 09:03:08 │ 2020-03-27 09:10:18 │ … │          430 │              │         35.0 │
│ fhv     │ 2020-03-27 09:25:06 │ 2020-03-27 09:54:16 │ … │         1750 │              │        228.0 │
│ fhv     │ 2020-03-27 09:46:16 │ 2020-03-27 09:53:02 │ … │          406 │              │         71.0 │
│ fhv     │ 2020-03-27 09:27:11 │ 2020-03-27 09:30:17 │ … │          186 │              │        168.0 │
│ fhv     │ 2020-03-27 09:51:31 │ 2020-03-27 09:56:31 │ … │          300 │              │         69.0 │
│ fhv     │ 2020-03-27 09:07:32 │ 2020-03-27 09:22:10 │ … │          878 │              │         74.0 │
│  ·      │          ·          │          ·          │ · │           ·  │      ·       │           ·  │
│  ·      │          ·          │          ·          │ · │           ·  │      ·       │           ·  │
│  ·      │          ·          │          ·          │ · │           ·  │      ·       │           ·  │
│ fhv     │ 2020-03-04 10:00:00 │ 2020-03-04 10:15:00 │ … │          900 │              │              │
│ fhv     │ 2020-03-04 10:00:00 │ 2020-03-04 10:15:00 │ … │          900 │              │              │
│ fhv     │ 2020-03-04 10:57:39 │ 2020-03-04 11:03:26 │ … │          347 │              │        227.0 │
│ fhv     │ 2020-03-04 10:05:24 │ 2020-03-04 10:11:17 │ … │          353 │              │        228.0 │
│ fhv     │ 2020-03-04 10:23:52 │ 2020-03-04 10:32:43 │ … │          531 │              │        227.0 │
│ fhv     │ 2020-03-04 10:45:43 │ 2020-03-04 10:50:36 │ … │          293 │              │         26.0 │
│ fhv     │ 2020-03-04 10:16:12 │ 2020-03-04 10:19:43 │ … │          211 │              │        133.0 │
│ fhv     │ 2020-03-04 10:23:31 │ 2020-03-04 10:36:44 │ … │          793 │              │        165.0 │
│ fhv     │ 2020-03-04 10:16:30 │ 2020-03-04 10:20:12 │ … │          222 │              │        228.0 │
│ fhv     │ 2020-03-04 10:21:27 │ 2020-03-04 10:27:30 │ … │          363 │              │        136.0 │
│ fhv     │ 2020-03-04 10:13:46 │ 2020-03-04 10:31:28 │ … │         1062 │              │        136.0 │
│ fhv     │ 2020-03-04 10:46:36 │ 2020-03-04 11:02:37 │ … │          961 │              │        241.0 │
│ fhv     │ 2020-03-04 10:14:23 │ 2020-03-04 10:30:59 │ … │          996 │              │        265.0 │
│ fhv     │ 2020-03-04 10:17:06 │ 2020-03-04 10:29:43 │ … │          757 │              │        174.0 │
│ fhv     │ 2020-03-04 10:51:50 │ 2020-03-04 11:36:34 │ … │         2684 │              │        119.0 │
│ fhv     │ 2020-03-04 10:09:28 │ 2020-03-04 10:12:00 │ … │          152 │              │        241.0 │
│ fhv     │ 2020-03-04 10:17:45 │ 2020-03-04 10:28:58 │ … │          673 │              │         18.0 │
│ fhv     │ 2020-03-04 10:50:31 │ 2020-03-04 10:58:56 │ … │          505 │              │        127.0 │
│ fhv     │ 2020-09-08 12:30:00 │ 2020-09-08 13:30:00 │ … │         3600 │              │        248.0 │
│ fhv     │ 2020-09-08 16:45:00 │ 2020-09-08 17:45:00 │ … │         3600 │              │              │
├─────────┴─────────────────────┴─────────────────────┴───┴──────────────┴──────────────┴──────────────┤
│ 15679790 rows (40 shown)                                                         7 columns (6 shown) │
└──────────────────────────────────────────────────────────────────────────────────────────────────────┘
