┌─────────────┬──────────────────────────────┬───────────┬────────────────────┬─────────────────────┬───────────────────┐
│ fare_amount │             Zone             │  Borough  │  avg_fare_by_zone  │ avg_fare_by_borough │     avg_fare      │
│   double    │           varchar            │  varchar  │       double       │       double        │      double       │
├─────────────┼──────────────────────────────┼───────────┼────────────────────┼─────────────────────┼───────────────────┤
│        19.5 │ Upper East Side South        │ Manhattan │  9.304850238942082 │   9.993706020926183 │ 18.71717383807915 │
│         6.0 │ Midtown Center               │ Manhattan │ 11.163937188170614 │   9.993706020926183 │ 18.71717383807915 │
│         9.5 │ Midtown Center               │ Manhattan │ 11.163937188170614 │   9.993706020926183 │ 18.71717383807915 │
│         7.5 │ Midtown Center               │ Manhattan │ 11.163937188170614 │   9.993706020926183 │ 18.71717383807915 │
│        24.5 │ Upper East Side North        │ Manhattan │  9.784515199085877 │   9.993706020926183 │ 18.71717383807915 │
│         6.5 │ Upper East Side North        │ Manhattan │  9.784515199085877 │   9.993706020926183 │ 18.71717383807915 │
│         6.0 │ Upper East Side North        │ Manhattan │  9.784515199085877 │   9.993706020926183 │ 18.71717383807915 │
│        27.5 │ Upper East Side North        │ Manhattan │  9.784515199085877 │   9.993706020926183 │ 18.71717383807915 │
│        11.0 │ Upper East Side North        │ Manhattan │  9.784515199085877 │   9.993706020926183 │ 18.71717383807915 │
│         9.5 │ Upper East Side North        │ Manhattan │  9.784515199085877 │   9.993706020926183 │ 18.71717383807915 │
│         6.0 │ Upper East Side North        │ Manhattan │  9.784515199085877 │   9.993706020926183 │ 18.71717383807915 │
│         8.5 │ Upper East Side North        │ Manhattan │  9.784515199085877 │   9.993706020926183 │ 18.71717383807915 │
│         4.5 │ Upper East Side North        │ Manhattan │  9.784515199085877 │   9.993706020926183 │ 18.71717383807915 │
│        15.5 │ Upper East Side North        │ Manhattan │  9.784515199085877 │   9.993706020926183 │ 18.71717383807915 │
│        16.5 │ Upper East Side North        │ Manhattan │  9.784515199085877 │   9.993706020926183 │ 18.71717383807915 │
│         4.5 │ Upper East Side North        │ Manhattan │  9.784515199085877 │   9.993706020926183 │ 18.71717383807915 │
│         5.5 │ Upper East Side North        │ Manhattan │  9.784515199085877 │   9.993706020926183 │ 18.71717383807915 │
│         5.0 │ Upper East Side North        │ Manhattan │  9.784515199085877 │   9.993706020926183 │ 18.71717383807915 │
│         6.5 │ Upper East Side North        │ Manhattan │  9.784515199085877 │   9.993706020926183 │ 18.71717383807915 │
│        13.0 │ Upper East Side North        │ Manhattan │  9.784515199085877 │   9.993706020926183 │ 18.71717383807915 │
│          ·  │    ·                         │    ·      │          ·         │            ·        │         ·         │
│          ·  │    ·                         │    ·      │          ·         │            ·        │         ·         │
│          ·  │    ·                         │    ·      │          ·         │            ·        │         ·         │
│       35.69 │ Erasmus                      │ Brooklyn  │ 28.906747299558777 │    24.3438406091537 │ 18.71717383807915 │
│       22.74 │ Erasmus                      │ Brooklyn  │ 28.906747299558777 │    24.3438406091537 │ 18.71717383807915 │
│       14.64 │ Erasmus                      │ Brooklyn  │ 28.906747299558777 │    24.3438406091537 │ 18.71717383807915 │
│        37.9 │ Erasmus                      │ Brooklyn  │ 28.906747299558777 │    24.3438406091537 │ 18.71717383807915 │
│       31.82 │ Erasmus                      │ Brooklyn  │ 28.906747299558777 │    24.3438406091537 │ 18.71717383807915 │
│       16.32 │ Erasmus                      │ Brooklyn  │ 28.906747299558777 │    24.3438406091537 │ 18.71717383807915 │
│       23.33 │ Erasmus                      │ Brooklyn  │ 28.906747299558777 │    24.3438406091537 │ 18.71717383807915 │
│       24.74 │ Erasmus                      │ Brooklyn  │ 28.906747299558777 │    24.3438406091537 │ 18.71717383807915 │
│       35.34 │ Erasmus                      │ Brooklyn  │ 28.906747299558777 │    24.3438406091537 │ 18.71717383807915 │
│       26.95 │ Erasmus                      │ Brooklyn  │ 28.906747299558777 │    24.3438406091537 │ 18.71717383807915 │
│       35.08 │ Erasmus                      │ Brooklyn  │ 28.906747299558777 │    24.3438406091537 │ 18.71717383807915 │
│       39.95 │ Erasmus                      │ Brooklyn  │ 28.906747299558777 │    24.3438406091537 │ 18.71717383807915 │
│       41.25 │ Erasmus                      │ Brooklyn  │ 28.906747299558777 │    24.3438406091537 │ 18.71717383807915 │
│       33.32 │ Erasmus                      │ Brooklyn  │ 28.906747299558777 │    24.3438406091537 │ 18.71717383807915 │
│         9.8 │ Erasmus                      │ Brooklyn  │ 28.906747299558777 │    24.3438406091537 │ 18.71717383807915 │
│       15.02 │ Erasmus                      │ Brooklyn  │ 28.906747299558777 │    24.3438406091537 │ 18.71717383807915 │
│         8.0 │ Erasmus                      │ Brooklyn  │ 28.906747299558777 │    24.3438406091537 │ 18.71717383807915 │
│       13.45 │ East Flatbush/Remsen Village │ Brooklyn  │ 29.014726664491754 │    24.3438406091537 │ 18.71717383807915 │
│       14.93 │ East Flatbush/Remsen Village │ Brooklyn  │ 29.014726664491754 │    24.3438406091537 │ 18.71717383807915 │
│         9.5 │ Downtown Brooklyn/MetroTech  │ Brooklyn  │ 18.919193892760518 │    24.3438406091537 │ 18.71717383807915 │
├─────────────┴──────────────────────────────┴───────────┴────────────────────┴─────────────────────┴───────────────────┤
│ 11528172 rows (40 shown)                                                                                    6 columns │
└───────────────────────────────────────────────────────────────────────────────────────────────────────────────────────┘
